Point of View & Perspective Taking
…
Age

pov_clean %>% 
  select(subid, age) %>% 
  unique() %>% 
  na.omit() %>% 
  summarize(mean = mean(age),
            sd = sd(age))

## # A tibble: 439 x 3
##    subid  mean    sd
##    <dbl> <dbl> <dbl>
##  1     1    20    NA
##  2     2    18    NA
##  3     3    20    NA
##  4     4    20    NA
##  5     5    19    NA
##  6     6    22    NA
##  7     7    18    NA
##  8     8    21    NA
##  9     9    20    NA
## 10    10    18    NA
## #  with 429 more rows
…
Model predicting difference scores for projection by condition

diff_score_data <- pov_clean %>% 
  select(subid, pt_condition, targ, self) %>% 
  group_by(subid) %>% 
  mutate(targ_ave = mean(targ),
         self_ave = mean(self)) %>% 
  select(-c(targ, self)) %>% 
  unique() %>% 
  na.omit() %>% 
  mutate(diff_score = self_ave-targ_ave)
diff_score_data

## # A tibble: 439 x 5
## # Groups:   subid [439]
##    subid pt_condition targ_ave self_ave diff_score
##    <dbl> <fct>           <dbl>    <dbl>      <dbl>
##  1     1 3rd              3.21     3.84     0.632 
##  2     2 3rd              3.47     3.47     0     
##  3     3 3rd              3.37     3.63     0.263 
##  4     4 control          4.05     3.95    -0.105 
##  5     5 control          3        3.32     0.316 
##  6     6 obj              3.16     3.11    -0.0526
##  7     7 obj              3        3.68     0.684 
##  8     8 control          3.74     4.16     0.421 
##  9     9 obj              3.53     3.53     0     
## 10    10 3rd              3.53     3.42    -0.105 
## #  with 429 more rows
…
